Regional and functional heterogeneity of hypothalamic astrocytes
…
Idents(combined_sct) <- "k_tree"
srt.markers <- FindAllMarkers(combined_sct, only.pos = TRUE, min.pct = 0.25, logfc.threshold = 0.25)
readr::write_csv(srt.markers, 
                 here(tables_dir,
                      'astr_k17-mrk_wilcox-sct.csv'))
srt.markers %>%
    group_by(cluster) %>%
    slice_max(n = 3, order_by = avg_log2FC)

# A tibble: 36 × 7
# Groups:   cluster [12]
       p_val avg_log2FC pct.1 pct.2 p_val_adj cluster gene   
       <dbl>      <dbl> <dbl> <dbl>     <dbl> <fct>   <chr>  
 1 9.35e- 19      16.5  0.423 0.277 3.98e- 16 1       Neat1  
 2 0               8.22 0.956 0.426 0         1       Malat1 
 3 6.18e- 32       7.99 0.508 0.382 2.63e- 29 1       Dclk1  
 4 9.09e-245       2.69 0.569 0.42  3.87e-242 2       Tsc22d3
 5 1.02e-113       2.27 0.514 0.381 4.35e-111 2       Cox5a  
 6 0               1.75 0.704 0.42  0         2       Mt1    
 7 1.01e- 26       5.05 0.377 0.378 4.31e- 24 3       Tprgl  
 8 2.24e-  6       3.13 0.382 0.402 9.55e-  4 3       Lsm6   
 9 1.19e- 36       2.69 0.484 0.423 5.07e- 34 3       S100a16
10 0              15.9  0.835 0.326 0         4       Nnat   
# … with 26 more rows
…
