Ageing hypothalamic astrocytes
…
Idents(combined_sct) <- "k_tree"
combined_sct <- PrepSCTFindMarkers(combined_sct)

srt.markers.roc <- FindAllMarkers(combined_sct, only.pos = TRUE, min.pct = 0.25, logfc.threshold = 0.25, test.use = "roc")
readr::write_csv(srt.markers.roc, 
                 here(tables_dir,
                      'ageing_astr_k9-mrk_roc-sct.csv'))

srt.markers.roc %>%
    group_by(cluster) %>%
    slice_max(n = 3, order_by = avg_log2FC)

# A tibble: 40 × 8
# Groups:   cluster [15]
   myAUC avg_diff power avg_log2FC pct.1 pct.2 cluster gene         
   <dbl>    <dbl> <dbl>      <dbl> <dbl> <dbl> <fct>   <chr>        
 1 0.804    1.51  0.608       2.18 0.798 0.263 1       Aldh1a1      
 2 0.74     0.880 0.48        1.27 0.739 0.346 1       Gm44151      
 3 0.712    0.785 0.424       1.13 0.645 0.252 1       Egfl6        
 4 0.711    1.51  0.422       2.18 0.625 0.183 4       Sfta3-ps     
 5 0.742    1.36  0.484       1.96 0.701 0.213 4       Pdzph1       
 6 0.711    1.25  0.422       1.80 0.705 0.278 4       Slit2        
 7 0.823    1.81  0.646       2.61 0.851 0.377 5       Rpl26        
 8 0.808    1.79  0.616       2.59 0.858 0.401 5       Fth1         
 9 0.822    1.66  0.644       2.39 0.861 0.317 5       Rpl23a       
10 0.802    0.902 0.604       1.30 0.79  0.327 6       1700034P13Rik
# … with 30 more rows

srt.markers.lr <- FindAllMarkers(combined_sct, only.pos = TRUE, min.pct = 0.25, logfc.threshold = 0.25, test.use = "LR")
readr::write_csv(srt.markers.lr, 
                 here(tables_dir,
                      'ageing_astr_k9-mrk_logreg-sct.csv'))
srt.markers.lr %>%
    group_by(cluster) %>%
    slice_max(n = 3, order_by = avg_log2FC)

# A tibble: 51 × 7
# Groups:   cluster [17]
       p_val avg_log2FC pct.1 pct.2 p_val_adj cluster gene         
       <dbl>      <dbl> <dbl> <dbl>     <dbl> <fct>   <chr>        
 1 6.20e-137       2.18 0.798 0.263 1.86e-133 1       Aldh1a1      
 2 1.78e- 57       1.76 0.604 0.222 5.35e- 54 1       Tafa1        
 3 3.89e- 29       1.35 0.581 0.305 1.17e- 25 1       Esrrg        
 4 5.31e- 10       1.47 0.374 0.261 1.59e-  6 2       Pacrg        
 5 4.36e-  9       1.42 0.34  0.231 1.31e-  5 2       Gm36037      
 6 4.92e-  9       1.25 0.435 0.305 1.48e-  5 2       Otx2os1      
 7 2.28e-  6       1.42 0.369 0.336 6.83e-  3 3       Frmpd1       
 8 3.12e-  3       1.20 0.239 0.259 1   e+  0 3       D130040H23Rik
 9 5.16e-  4       1.19 0.273 0.273 1   e+  0 3       Kansl3       
10 6.79e- 66       2.18 0.625 0.183 2.04e- 62 4       Sfta3-ps     
# … with 41 more rows
…
