Ageing hypothalamic astrocytes to separate nuclei transfer
…
gene_list_plot <- 
  Extract_Top_Markers(marker_dataframe = srt.markers.roc,
                      num_genes = 3,
                      rank_by = "avg_log2FC",
                      make_unique = TRUE,
                      named_vector = FALSE)

# LR-test markers
srt.markers.lr <- read_csv(file = here(tables_dir,
                      'ageing_astr_recon-mrk_logreg-sct.csv'))
srt.markers.lr %>%
    group_by(cluster) %>%
    slice_max(n = 3, order_by = avg_log2FC)

# A tibble: 23 × 7
# Groups:   cluster [9]
       p_val avg_log2FC pct.1 pct.2 p_val_adj cluster gene   
       <dbl>      <dbl> <dbl> <dbl>     <dbl>   <dbl> <chr>  
 1 1.84e- 72      1.91  0.6   0.246 6.42e- 69       1 Aldh1a1
 2 1.41e- 24      1.62  0.407 0.223 4.95e- 21       1 Esrrg  
 3 1.24e- 21      1.38  0.445 0.276 4.32e- 18       1 Kcnq3  
 4 5.25e- 19      0.920 0.476 0.294 1.84e- 15       2 Tnfaip8
 5 1.98e- 15      0.810 0.393 0.229 6.94e- 12       2 Sgcd   
 6 2.07e- 32      2.05  0.575 0.421 7.25e- 29       3 Tspan7 
 7 6.85e- 70      1.87  0.575 0.256 2.40e- 66       3 Slit2  
 8 8.72e- 51      1.86  0.514 0.164 3.05e- 47       3 Pdzph1 
 9 3.78e-  3      0.326 0.505 0.333 1   e+  0       4 Pcif1  
10 2.81e-192      2.63  0.929 0.357 9.84e-189       5 mt-Co2 
# … with 13 more rows
…
